EMOTIKON - Preprocessing demos: forcats package
…
figure

Code

# table of means
t1_AST <- 
  dat %>%
  mutate(AgeBins = cut( age, breaks = c(7.8, seq(8.2, 9.0, 0.25), 9.3)))|>
  group_by(AgeBins, Sex, Test)|>
  summarise(N=n(), Age=mean(age),  M=mean(zScore), SD=sd(zScore), 
            CI=1.96*SD/sqrt(N), .groups="drop") 
t1_AST

# A tibble: 50 × 8
   AgeBins   Sex    Test       N   Age       M    SD    CI
   <fct>     <fct>  <fct>  <int> <dbl>   <dbl> <dbl> <dbl>
 1 (7.8,8.2] female Run      139  8.11 -0.111  0.959 0.159
 2 (7.8,8.2] female Star_r   137  8.11 -0.195  1.00  0.168
 3 (7.8,8.2] female S20_r    139  8.10 -0.235  0.940 0.156
 4 (7.8,8.2] female SLJ      120  8.11 -0.413  0.906 0.162
 5 (7.8,8.2] female BPT      137  8.11 -0.568  0.808 0.135
 6 (7.8,8.2] male   Run      106  8.11  0.268  0.950 0.181
 7 (7.8,8.2] male   Star_r   126  8.11 -0.114  0.957 0.167
 8 (7.8,8.2] male   S20_r    123  8.11  0.0812 1.08  0.191
 9 (7.8,8.2] male   SLJ      129  8.10  0.185  0.985 0.170
10 (7.8,8.2] male   BPT      116  8.12  0.0870 0.958 0.174
# ℹ 40 more rows
…
Code

dat <-  
  dat |> 
  mutate(Component = 
         fct_recode(Test, Endurance = "Run", 
                          Coordination = "Star_r", 
                          Speed = "S20_r",
                          PowerLOW = "SLJ", 
                          PowerUP = "BPT"),
         Sex = fct_recode(Sex, Girls = "female", Boys = "male"))
dat

# A tibble: 10,000 × 9
# Groups:   Test [5]
   Cohort School  Child   Sex     age Test  score zScore Component
   <fct>  <fct>   <fct>   <fct> <dbl> <fct> <dbl>  <dbl> <fct>    
 1 2018   S102398 C024537 Girls  8.27 Run     900 -0.711 Endurance
 2 2017   S103329 C071418 Girls  8.68 Run     711 -1.99  Endurance
 3 2017   S105053 C022659 Girls  8.25 Run    1071  0.445 Endurance
 4 2013   S101618 C002490 Girls  7.99 Run     873 -0.894 Endurance
 5 2016   S104620 C064995 Girls  8.63 Run     783 -1.50  Endurance
 6 2019   S102180 C056839 Girls  8.56 Run     702 -2.05  Endurance
 7 2015   S100316 C046325 Girls  8.47 Run     844 -1.09  Endurance
 8 2011   S102891 C099175 Girls  8.92 Run    1155  1.01  Endurance
 9 2014   S111077 C055091 Girls  8.54 Run     981 -0.164 Endurance
10 2019   S103639 C076257 Girls  8.72 Run     990 -0.103 Endurance
# ℹ 9,990 more rows

Code

# table of means
t2_AST <- 
  dat %>%
  mutate( AgeBins = cut( age, breaks = c(7.8, seq(8.2, 9.2, 0.25), 9.3)))|>
  group_by(AgeBins, Sex, Component)|>
  summarise(N=n(), Age=mean(age),  M=mean(zScore), SD=sd(zScore), 
            CI=1.96*SD/sqrt(N), .groups="drop") 
t2_AST

# A tibble: 50 × 8
   AgeBins   Sex   Component        N   Age       M    SD    CI
   <fct>     <fct> <fct>        <int> <dbl>   <dbl> <dbl> <dbl>
 1 (7.8,8.2] Girls Endurance      139  8.11 -0.111  0.959 0.159
 2 (7.8,8.2] Girls Coordination   137  8.11 -0.195  1.00  0.168
 3 (7.8,8.2] Girls Speed          139  8.10 -0.235  0.940 0.156
 4 (7.8,8.2] Girls PowerLOW       120  8.11 -0.413  0.906 0.162
 5 (7.8,8.2] Girls PowerUP        137  8.11 -0.568  0.808 0.135
 6 (7.8,8.2] Boys  Endurance      106  8.11  0.268  0.950 0.181
 7 (7.8,8.2] Boys  Coordination   126  8.11 -0.114  0.957 0.167
 8 (7.8,8.2] Boys  Speed          123  8.11  0.0812 1.08  0.191
 9 (7.8,8.2] Boys  PowerLOW       129  8.10  0.185  0.985 0.170
10 (7.8,8.2] Boys  PowerUP        116  8.12  0.0870 0.958 0.174
# ℹ 40 more rows
…
Code

dat <- dat |>  mutate(Sex = fct_rev(Sex))

# table of means
t3_AST <- 
  dat %>%
  mutate( AgeBins = cut( age, breaks = c(7.8, seq(8.2, 9.2, 0.25), 9.3)))|>
  group_by(AgeBins, Sex, Component)|>
  summarise(N=n(), Age=mean(age),  M=mean(zScore), SD=sd(zScore), 
            CI=1.96*SD/sqrt(N), .groups="drop") 
t3_AST

# A tibble: 50 × 8
   AgeBins   Sex   Component        N   Age       M    SD    CI
   <fct>     <fct> <fct>        <int> <dbl>   <dbl> <dbl> <dbl>
 1 (7.8,8.2] Boys  Endurance      106  8.11  0.268  0.950 0.181
 2 (7.8,8.2] Boys  Coordination   126  8.11 -0.114  0.957 0.167
 3 (7.8,8.2] Boys  Speed          123  8.11  0.0812 1.08  0.191
 4 (7.8,8.2] Boys  PowerLOW       129  8.10  0.185  0.985 0.170
 5 (7.8,8.2] Boys  PowerUP        116  8.12  0.0870 0.958 0.174
 6 (7.8,8.2] Girls Endurance      139  8.11 -0.111  0.959 0.159
 7 (7.8,8.2] Girls Coordination   137  8.11 -0.195  1.00  0.168
 8 (7.8,8.2] Girls Speed          139  8.10 -0.235  0.940 0.156
 9 (7.8,8.2] Girls PowerLOW       120  8.11 -0.413  0.906 0.162
10 (7.8,8.2] Girls PowerUP        137  8.11 -0.568  0.808 0.135
# ℹ 40 more rows
…
[1] "PowerUP"      "Endurance"    "Coordination" "Speed"        "PowerLOW"    

Code

t4_AST <- 
  dat %>%
  mutate( AgeBins = cut( age, breaks = c(7.8, seq(8.2, 9.2, 0.25), 9.3)))|>
  group_by(AgeBins, Sex, Comp2)|>
  summarise(N=n(), Age=mean(age),  M=mean(zScore), SD=sd(zScore), 
            CI=1.96*SD/sqrt(N), .groups="drop") 
t4_AST

# A tibble: 50 × 8
   AgeBins   Sex   Comp2            N   Age       M    SD    CI
   <fct>     <fct> <fct>        <int> <dbl>   <dbl> <dbl> <dbl>
 1 (7.8,8.2] Boys  PowerUP        116  8.12  0.0870 0.958 0.174
 2 (7.8,8.2] Boys  Endurance      106  8.11  0.268  0.950 0.181
 3 (7.8,8.2] Boys  Coordination   126  8.11 -0.114  0.957 0.167
 4 (7.8,8.2] Boys  Speed          123  8.11  0.0812 1.08  0.191
 5 (7.8,8.2] Boys  PowerLOW       129  8.10  0.185  0.985 0.170
 6 (7.8,8.2] Girls PowerUP        137  8.11 -0.568  0.808 0.135
 7 (7.8,8.2] Girls Endurance      139  8.11 -0.111  0.959 0.159
 8 (7.8,8.2] Girls Coordination   137  8.11 -0.195  1.00  0.168
 9 (7.8,8.2] Girls Speed          139  8.10 -0.235  0.940 0.156
10 (7.8,8.2] Girls PowerLOW       120  8.11 -0.413  0.906 0.162
# ℹ 40 more rows
…
Code

t5_AST <- 
  dat2 %>%
  mutate( AgeBins = cut( age, breaks = c(7.8, seq(8.2, 9.2, 0.25), 9.3)))|>
  group_by(AgeBins, Sex, Comp3)|>
  summarise(N=n(), Age=mean(age),  M=mean(zScore), SD=sd(zScore), 
            CI=1.96*SD/sqrt(N), .groups="drop") 
t5_AST

# A tibble: 50 × 8
   AgeBins   Sex   Comp3            N   Age       M    SD    CI
   <fct>     <fct> <fct>        <int> <dbl>   <dbl> <dbl> <dbl>
 1 (7.8,8.2] Boys  Speed           58  8.11  0.172  1.03  0.266
 2 (7.8,8.2] Boys  Coordination    61  8.11 -0.0378 0.844 0.212
 3 (7.8,8.2] Boys  PowerUP         60  8.11  0.0901 0.972 0.246
 4 (7.8,8.2] Boys  Endurance       57  8.12  0.357  0.966 0.251
 5 (7.8,8.2] Boys  PowerLOW        73  8.11  0.379  0.903 0.207
 6 (7.8,8.2] Girls Speed           73  8.10 -0.204  0.920 0.211
 7 (7.8,8.2] Girls Coordination    71  8.10 -0.174  0.994 0.231
 8 (7.8,8.2] Girls PowerUP         63  8.12 -0.373  0.812 0.201
 9 (7.8,8.2] Girls Endurance       67  8.11 -0.117  0.913 0.219
10 (7.8,8.2] Girls PowerLOW        61  8.11 -0.377  0.952 0.239
# ℹ 40 more rows
…
